<svg width="63" height="63" viewBox="0 0 63 63" fill="none" xmlns="http://www.w3.org/2000/svg">
<path d="M63 31.5C63 48.897 48.897 63 31.5 63C14.103 63 0 48.897 0 31.5C0 14.103 14.103 0 31.5 0C48.897 0 63 14.103 63 31.5ZM3.37772 31.5C3.37772 47.0315 15.9685 59.6223 31.5 59.6223C47.0315 59.6223 59.6223 47.0315 59.6223 31.5C59.6223 15.9685 47.0315 3.37772 31.5 3.37772C15.9685 3.37772 3.37772 15.9685 3.37772 31.5Z" fill="#E8E8E8"/>
<path d="M31.5 1.76048C31.5 0.788193 32.2888 -0.0051313 33.2596 0.0491715C38.8716 0.363095 44.3092 2.17411 49.0005 5.30871C54.1806 8.76997 58.218 13.6896 60.6022 19.4455C62.9864 25.2013 63.6102 31.5349 62.3947 37.6453C61.1793 43.7557 58.1792 49.3685 53.7739 53.7739C49.3685 58.1792 43.7557 61.1793 37.6453 62.3947C31.5349 63.6102 25.2013 62.9864 19.4455 60.6022C13.6896 58.218 8.76997 54.1806 5.30871 49.0005C2.17411 44.3092 0.363096 38.8716 0.0491716 33.2596C-0.00513127 32.2888 0.788193 31.5 1.76048 31.5C2.73276 31.5 3.51518 32.289 3.57631 33.2594C3.88596 38.1745 5.48865 42.9322 8.23627 47.0443C11.3106 51.6455 15.6804 55.2316 20.7929 57.3493C25.9054 59.4669 31.531 60.021 36.9584 58.9414C42.3858 57.8619 47.3712 55.1971 51.2842 51.2842C55.1971 47.3712 57.8619 42.3858 58.9414 36.9584C60.021 31.531 59.4669 25.9054 57.3493 20.7929C55.2316 15.6804 51.6455 11.3107 47.0443 8.23627C42.9322 5.48865 38.1745 3.88596 33.2594 3.57631C32.289 3.51518 31.5 2.73276 31.5 1.76048Z" fill="#FF7D04"/>
<path d="M25.4815 30.376C26.2922 30.568 26.9482 30.9467 27.4495 31.512C27.9615 32.0667 28.2175 32.7653 28.2175 33.608C28.2175 34.728 27.8388 35.608 27.0815 36.248C26.3242 36.888 25.3962 37.208 24.2975 37.208C23.4442 37.208 22.6762 37.0107 21.9935 36.616C21.3215 36.2213 20.8362 35.6453 20.5375 34.888L22.1055 33.976C22.4362 34.936 23.1668 35.416 24.2975 35.416C24.9375 35.416 25.4442 35.256 25.8175 34.936C26.1908 34.6053 26.3775 34.1627 26.3775 33.608C26.3775 33.0533 26.1908 32.616 25.8175 32.296C25.4442 31.976 24.9375 31.816 24.2975 31.816H23.8815L23.1455 30.712L25.5615 27.528H20.8735V25.8H27.7535V27.368L25.4815 30.376ZM32.1616 36.84C31.927 37.0747 31.6443 37.192 31.3136 37.192C30.983 37.192 30.7003 37.0747 30.4656 36.84C30.231 36.6053 30.1136 36.3227 30.1136 35.992C30.1136 35.6613 30.2256 35.3787 30.4496 35.144C30.6843 34.9093 30.9723 34.792 31.3136 34.792C31.6443 34.792 31.927 34.9093 32.1616 35.144C32.3963 35.3787 32.5136 35.6613 32.5136 35.992C32.5136 36.3227 32.3963 36.6053 32.1616 36.84ZM38.5438 30.024C39.6104 30.024 40.5118 30.344 41.2478 30.984C41.9838 31.6133 42.3518 32.488 42.3518 33.608C42.3518 34.728 41.9731 35.608 41.2158 36.248C40.4584 36.888 39.5304 37.208 38.4318 37.208C37.5464 37.208 36.7624 37.0053 36.0798 36.6C35.3971 36.184 34.9118 35.5867 34.6238 34.808L36.2078 33.896C36.5064 34.9093 37.2478 35.416 38.4318 35.416C39.0611 35.416 39.5624 35.256 39.9358 34.936C40.3198 34.6053 40.5118 34.1627 40.5118 33.608C40.5118 33.0533 40.3251 32.616 39.9518 32.296C39.5784 31.976 39.0824 31.816 38.4638 31.816H35.1998L35.6318 25.8H41.8718V27.528H37.3278L37.1358 30.024H38.5438Z" fill="#FF7D04"/>
</svg>
