<svg width="63" height="63" viewBox="0 0 63 63" fill="none" xmlns="http://www.w3.org/2000/svg">
<path d="M63 31.5C63 48.897 48.897 63 31.5 63C14.103 63 0 48.897 0 31.5C0 14.103 14.103 0 31.5 0C48.897 0 63 14.103 63 31.5ZM3.37772 31.5C3.37772 47.0315 15.9685 59.6223 31.5 59.6223C47.0315 59.6223 59.6223 47.0315 59.6223 31.5C59.6223 15.9685 47.0315 3.37772 31.5 3.37772C15.9685 3.37772 3.37772 15.9685 3.37772 31.5Z" fill="#E8E8E8"/>
<path d="M31.5 1.76048C31.5 0.788193 32.2889 -0.00512918 33.2596 0.0491801C37.8738 0.307321 42.3824 1.57822 46.4619 3.78014C50.5414 5.98205 54.0781 9.05364 56.8261 12.7693C57.4042 13.551 57.174 14.6458 56.3612 15.1794C55.5484 15.713 54.4613 15.4828 53.8777 14.7052C51.4539 11.4756 48.3551 8.8031 44.7895 6.87856C41.2239 4.95402 37.2893 3.83021 33.2593 3.57632C32.289 3.51518 31.5 2.73276 31.5 1.76048Z" fill="#E30909"/>
<path d="M19.6257 37V35.56L23.5297 31.576C24.479 30.6267 24.9537 29.8053 24.9537 29.112C24.9537 28.568 24.7884 28.1467 24.4577 27.848C24.1377 27.5387 23.727 27.384 23.2257 27.384C22.287 27.384 21.5937 27.848 21.1457 28.776L19.5937 27.864C19.9457 27.1173 20.4417 26.552 21.0817 26.168C21.7217 25.784 22.431 25.592 23.2097 25.592C24.191 25.592 25.0337 25.9013 25.7377 26.52C26.4417 27.1387 26.7937 27.9813 26.7937 29.048C26.7937 30.1893 26.159 31.4053 24.8897 32.696L22.3617 35.224H27.0017V37H19.6257ZM31.2944 36.84C31.0598 37.0747 30.7771 37.192 30.4464 37.192C30.1158 37.192 29.8331 37.0747 29.5984 36.84C29.3638 36.6053 29.2464 36.3227 29.2464 35.992C29.2464 35.6613 29.3584 35.3787 29.5824 35.144C29.8171 34.9093 30.1051 34.792 30.4464 34.792C30.7771 34.792 31.0598 34.9093 31.2944 35.144C31.5291 35.3787 31.6464 35.6613 31.6464 35.992C31.6464 36.3227 31.5291 36.6053 31.2944 36.84ZM41.0642 35.624C40.2962 36.68 39.2189 37.208 37.8322 37.208C36.4455 37.208 35.3629 36.68 34.5842 35.624C33.8162 34.568 33.4322 33.16 33.4322 31.4C33.4322 29.64 33.8162 28.232 34.5842 27.176C35.3629 26.12 36.4455 25.592 37.8322 25.592C39.2189 25.592 40.2962 26.12 41.0642 27.176C41.8429 28.232 42.2322 29.64 42.2322 31.4C42.2322 33.16 41.8429 34.568 41.0642 35.624ZM37.8322 35.416C38.6642 35.416 39.2989 35.0693 39.7362 34.376C40.1735 33.6827 40.3922 32.6907 40.3922 31.4C40.3922 30.1093 40.1735 29.1173 39.7362 28.424C39.2989 27.7307 38.6642 27.384 37.8322 27.384C37.0109 27.384 36.3762 27.7307 35.9282 28.424C35.4909 29.1173 35.2722 30.1093 35.2722 31.4C35.2722 32.6907 35.4909 33.6827 35.9282 34.376C36.3762 35.0693 37.0109 35.416 37.8322 35.416Z" fill="#E30909"/>
</svg>
