<svg width="12" height="15" viewBox="0 0 12 15" fill="none" xmlns="http://www.w3.org/2000/svg">
<path d="M6.6613 0.338914C6.35756 0.0351725 5.8651 0.0351725 5.56136 0.338914L0.611609 5.28866C0.307868 5.5924 0.307868 6.08486 0.611609 6.38861C0.91535 6.69235 1.40781 6.69235 1.71155 6.38861L6.11133 1.98883L10.5111 6.38861C10.8148 6.69235 11.3073 6.69235 11.611 6.38861C11.9148 6.08486 11.9148 5.5924 11.611 5.28866L6.6613 0.338914ZM6.88911 14.8889L6.88911 0.888886L5.33355 0.888885L5.33355 14.8889L6.88911 14.8889Z" fill="white"/>
</svg>
