<svg width="50" height="50" viewBox="0 0 50 50" fill="none" xmlns="http://www.w3.org/2000/svg">
<path opacity="0.12" d="M25 0C11.1929 0 0 11.1929 0 25C0 38.8071 11.1929 50 25 50C38.8071 50 50 38.8071 50 25C50 11.1929 38.8071 0 25 0Z" fill="#149E4C"/>
<path d="M40.5273 20.0195V41.5039C40.5273 41.7736 40.3087 41.9922 40.0391 41.9922H6.66465C2.52939 37.5321 0 31.5619 0 25C0 23.1213 0.208789 21.2915 0.601562 19.5312H40.0391C40.3087 19.5312 40.5273 19.7498 40.5273 20.0195Z" fill="#EBF8F0"/>
<path d="M44.4336 38.0859H3.6958C1.35264 34.2794 0 29.7979 0 25C0 21.6844 0.646973 18.5203 1.81914 15.625H44.2901C44.5094 15.9774 44.72 16.3356 44.9219 16.6996V37.5977C44.9219 37.8674 44.7032 38.0859 44.4336 38.0859Z" fill="white"/>
<path d="M0 25.1826C0 29.882 0.9234 34.2716 2.523 38H14L8.32707 16H1.24187C0.441667 18.8359 0 21.935 0 25.1826Z" fill="#050A0A"/>
<path d="M41 30.1667V31.5C41 31.592 40.8917 31.6667 40.7579 31.6667H18.2421C18.1083 31.6667 18 31.592 18 31.5V30.1667C18 30.0747 18.1083 30 18.2421 30H40.7579C40.8917 30 41 30.0747 41 30.1667ZM40.7579 33.3333H25.5053C25.3715 33.3333 25.2632 33.408 25.2632 33.5V34.8333C25.2632 34.9253 25.3715 35 25.5053 35H40.7579C40.8917 35 41 34.9253 41 34.8333V33.5C41 33.408 40.8917 33.3333 40.7579 33.3333Z" fill="#C9C9C9"/>
<path d="M26.2835 4.73863C26.7731 3.53199 28.5688 3.88921 28.5593 5.19136C28.5517 6.25201 29.8374 6.78453 30.5819 6.02915C31.496 5.10171 33.0183 6.1189 32.5113 7.31832C32.0983 8.29527 33.0824 9.27935 34.0593 8.86636C35.2587 8.35933 36.2759 9.88169 35.3485 10.7958C34.5931 11.5404 35.1256 12.826 36.1863 12.8184C37.4884 12.809 37.8457 14.6047 36.639 15.0943C35.6562 15.4931 35.6562 16.8847 36.639 17.2835C37.8457 17.7732 37.4884 19.5689 36.1863 19.5594C35.1256 19.5518 34.5931 20.8375 35.3485 21.5821C36.2759 22.4961 35.2587 24.0185 34.0593 23.5115C33.0824 23.0985 32.0983 24.0826 32.5113 25.0595C33.0183 26.2589 31.496 27.2761 30.5819 26.3487C29.8374 25.5933 28.5516 26.1258 28.5593 27.1865C28.5687 28.4886 26.773 28.8459 26.2835 27.6392C25.8846 26.6564 24.493 26.6564 24.0942 27.6392C23.6045 28.8459 21.8088 28.4886 21.8183 27.1865C21.8259 26.1258 20.5403 25.5933 19.7958 26.3487C18.8816 27.2761 17.3593 26.2589 17.8664 25.0595C18.2794 24.0826 17.2953 23.0985 16.3183 23.5115C15.1189 24.0185 14.1017 22.4961 15.0292 21.5821C15.7845 20.8375 15.252 19.5518 14.1914 19.5594C12.8892 19.5688 12.532 17.7731 13.7386 17.2835C14.7214 16.8847 14.7214 15.4931 13.7386 15.0943C12.532 14.6046 12.8892 12.8089 14.1914 12.8184C15.252 12.826 15.7845 11.5404 15.0292 10.7958C14.1017 9.88169 15.1189 8.35933 16.3183 8.86636C17.2953 9.27935 18.2794 8.29527 17.8664 7.31832C17.3593 6.1189 18.8817 5.10171 19.7958 6.02915C20.5404 6.78453 21.826 6.25201 21.8183 5.19136C21.8089 3.88921 23.6046 3.53199 24.0942 4.73863C24.493 5.72144 25.8846 5.72144 26.2835 4.73863Z" fill="#149E4C"/>
<path d="M24.1117 27.6006C24.1059 27.6135 24.0997 27.6259 24.0943 27.6392C23.6047 28.8457 21.8089 28.4886 21.8184 27.1864C21.826 26.1258 20.5404 25.5933 19.7958 26.3486C18.8817 27.2761 17.3593 26.2589 17.8664 25.0594C18.2794 24.0824 17.2953 23.0984 16.3183 23.5113C15.1189 24.0184 14.1017 22.4961 15.0292 21.5819C15.7845 20.8373 15.252 19.5517 14.1914 19.5594C12.8892 19.5689 12.532 17.7731 13.7386 17.2835C14.7214 16.8847 14.7214 15.4931 13.7386 15.0943C12.532 14.6046 12.8892 12.8089 14.1914 12.8184C15.252 12.826 15.7845 11.5403 15.0292 10.7957C14.1017 9.88165 15.1189 8.35929 16.3183 8.86632C17.2953 9.27931 18.2794 8.29533 17.8664 7.31827C17.3593 6.11886 18.8817 5.10167 19.7958 6.02911C20.5404 6.78449 21.826 6.25197 21.8184 5.19132C21.809 3.88917 23.6047 3.53204 24.0943 4.73859C24.0997 4.75187 24.1059 4.76427 24.1117 4.77716C20.53 7.30353 18.1904 11.4728 18.1904 16.1889C18.1904 20.905 20.5301 25.0743 24.1117 27.6006Z" fill="#149E4C"/>
<path d="M30.8371 12.1611L21.2901 21.7082C21.2314 21.7668 21.1364 21.7668 21.0777 21.7082L20.2284 20.8589C20.1698 20.8003 20.1698 20.7052 20.2284 20.6465L29.7754 11.0995C29.8341 11.0408 29.9291 11.0408 29.9878 11.0995L30.8371 11.9488C30.8957 12.0075 30.8957 12.1025 30.8371 12.1611ZM19.9023 13.401C19.9023 11.9498 21.0787 10.7734 22.5299 10.7734C23.981 10.7734 25.1574 11.9498 25.1574 13.401C25.1574 14.8521 23.981 16.0285 22.5299 16.0285C21.0787 16.0285 19.9023 14.8521 19.9023 13.401ZM21.4038 13.401C21.4038 14.0229 21.908 14.527 22.5299 14.527C23.1518 14.527 23.6559 14.0229 23.6559 13.401C23.6559 12.7791 23.1518 12.2749 22.5299 12.2749C21.908 12.2749 21.4038 12.7791 21.4038 13.401ZM31.1632 19.4067C31.1632 20.8579 29.9868 22.0342 28.5356 22.0342C27.0845 22.0342 25.9081 20.8579 25.9081 19.4067C25.9081 17.9556 27.0845 16.7792 28.5356 16.7792C29.9868 16.7792 31.1632 17.9556 31.1632 19.4067ZM29.6617 19.4067C29.6617 18.7848 29.1575 18.2806 28.5356 18.2806C27.9137 18.2806 27.4096 18.7848 27.4096 19.4067C27.4096 20.0286 27.9137 20.5328 28.5356 20.5328C29.1575 20.5328 29.6617 20.0286 29.6617 19.4067Z" fill="#FFF5F5"/>
</svg>
