<svg width="18" height="18" viewBox="0 0 18 18" fill="none" xmlns="http://www.w3.org/2000/svg">
<g clip-path="url(#clip0)">
<path d="M17.6635 17.5326V17.5319H17.6679V11.1017C17.6679 7.95593 16.9907 5.53271 13.3131 5.53271C11.5452 5.53271 10.3588 6.50288 9.87445 7.42264H9.82331V5.82639H6.33643L6.33643 17.5319H9.96723V11.7358C9.96723 10.2097 10.2565 8.73396 12.1464 8.73396C14.0086 8.73396 14.0364 10.4756 14.0364 11.8337V17.5326H17.6635Z" fill="white"/>
<path d="M0.422852 5.82812H4.05804V17.5336H0.422852L0.422852 5.82812Z" fill="white"/>
<path d="M2.23824 0C1.07594 0 0.132813 0.943132 0.132813 2.10543C0.132813 3.26772 1.07594 4.23058 2.23824 4.23058C3.40054 4.23058 4.34367 3.26772 4.34367 2.10543C4.34294 0.943132 3.39981 0 2.23824 0V0Z" fill="white"/>
</g>
<defs>
<clipPath id="clip0">
<rect width="17.5331" height="17.5331" fill="white" transform="translate(0.132812)"/>
</clipPath>
</defs>
</svg>
